{
    "plugins": [
        "head-append"
      ],
      "head-append": {
          "code": [
            "<meta name=\"google-site-verification\" content=\"CvCI-sBM2pByQVRklkDIZj95QolAdBAyckqVKKlcQ3M\" />"
          ]
        }
}
